@startuml
!include https://devzai-uploaods.s3.us-east-2.amazonaws.com/c4/C4_Component.puml
LAYOUT_WITH_LEGEND()

Person(user, "Hulu Users", "An user ask in slack")
System(gateway, "AWS GateWay", "description")
System_Ext(slack, "slack", "A proprietary business communication platform ")
System_Ext(pageDuty, "pageDuty", "A SaaS incident response platform for IT departments")
System(plan, "DevZ AI Support Plan", "description")

Container_Boundary(ai_gateway, "AI Gateway") {
    Component(receiver, "Questions Receiver", "springboot", "receive different type of questions")
    Component(slack_comprehend_normalizer, "Slack Comprehend Normalizer", "springboot", "description")
    Component(pageduty_comprehend_normalizer, "PageDuty Comprehend Normalizer", "springboot", "description")
}
System_Ext(comprehend, "AWS Comprehend",  "nlp AI engine")

Rel(user,slack,"ask in slack")
Rel(slack,gateway,"chat history in thread")
Rel(pageDuty,gateway,"alert message")
Rel(gateway, plan,"", "http")
Rel(plan,receiver,"","http")
Rel(receiver,plan,"solutions","http")
Rel(receiver,slack_comprehend_normalizer,"normalize slack chat history to comprehend input")
Rel(receiver,pageduty_comprehend_normalizer,"normalize page duty message to comprehend input")
Rel(slack_comprehend_normalizer,comprehend,"send normalized questions","aws client")
Rel(pageduty_comprehend_normalizer,comprehend,"send normalized questions","aws client")



@enduml
